Jack Bailey - All Samples Great and Small
…
bern_dta <- 
  bern_dta |> 
  mutate(
    vote = 
      rbinom(
        n = n_voters * n_countries,
        size = 1,
        prob = inv_logit(a + a_c + b * gdp)
      )
  )

Before we aggregate the data, let’s take a moment to look at our data:

# A tibble: 10,000 × 5
   voter country    gdp     a_c  vote
   <int>   <int>  <dbl>   <dbl> <int>
 1     1       1 -1.80   0.124      0
 2     1       2  0.576  0.0204     0
 3     1       3 -2.14   0.0203     0
 4     1       4  0.449 -0.0677     0
 5     1       5 -0.130 -0.220      1
 6     1       6  1.51   0.227      1
 7     1       7 -0.887  0.0765     0
 8     1       8  0.758  0.0481     1
 9     1       9  1.72  -0.0134     1
10     1      10  0.917  0.140      0
# ℹ 9,990 more rows
…
binom_dta <- 
  bern_dta |> 
  group_by(country) |> 
  summarise(
    trials = n(),
    success = sum(vote),
    gdp = unique(gdp)
  )

# Take a peek at the data to demonstrate how it has changed

binom_dta

# A tibble: 100 × 4
   country trials success    gdp
     <int>  <int>   <int>  <dbl>
 1       1    100      13 -1.80 
 2       2    100      61  0.576
 3       3    100       7 -2.14 
 4       4    100      56  0.449
 5       5    100      43 -0.130
 6       6    100      87  1.51 
 7       7    100      34 -0.887
 8       8    100      78  0.758
 9       9    100      80  1.72 
10      10    100      67  0.917
# ℹ 90 more rows
…
# Convert data from a series of Bernoulli trials into beta format

beta_dta <- 
  bern_dta |> 
  group_by(country) |> 
  summarise(
    vote = mean(vote),
    gdp = unique(gdp)
  )

# Take a peek at the data again to demonstrate how it has changed

beta_dta

# A tibble: 100 × 3
   country  vote    gdp
     <int> <dbl>  <dbl>
 1       1  0.13 -1.80 
 2       2  0.61  0.576
 3       3  0.07 -2.14 
 4       4  0.56  0.449
 5       5  0.43 -0.130
 6       6  0.87  1.51 
 7       7  0.34 -0.887
 8       8  0.78  0.758
 9       9  0.8   1.72 
10      10  0.67  0.917
# ℹ 90 more rows
…
